…
# 3. Heatmaps

## 3.1 HB13hpf top5 DE genes

``` r
All.markers.13 <- FindAllMarkers(HB13hpf, only.pos = T, verbose = F)
```

``` r
top5.pval.13 <- All.markers.13 %>% group_by(cluster) %>% top_n(n=-5, wt = p_val) %>% top_n(n=5, wt = avg_log2FC)
top5.pval.13
```

    ## # A tibble: 135 × 7
    ## # Groups:   cluster [27]
    ##        p_val avg_log2FC pct.1 pct.2 p_val_adj cluster gene           
    ##        <dbl>      <dbl> <dbl> <dbl>     <dbl> <fct>   <chr>          
    ##  1 2.48e- 66      0.800 0.459 0.008 4.54e- 62 FB.1    rx1            
    ##  2 3.31e- 58      1.38  0.649 0.033 6.06e- 54 FB.1    aldh1a3        
    ##  3 4.05e- 45      1.10  0.459 0.02  7.42e- 41 FB.1    rorb           
    ##  4 5.97e- 44      0.976 0.568 0.035 1.09e- 39 FB.1    six3b          
    ##  5 5.36e- 40      0.344 0.216 0.001 9.81e- 36 FB.1    hmx4           
    ##  6 6.25e-112      2.42  1     0.028 1.14e-107 FB.2    si:ch73-215f7.1
    ##  7 6.57e- 89      1.21  0.69  0.013 1.20e- 84 FB.2    foxg1a         
    ##  8 6.22e- 65      1.66  0.724 0.029 1.14e- 60 FB.2    emx3           
    ##  9 2.99e- 47      0.554 0.379 0.008 5.48e- 43 FB.2    dmrta2         
    ## 10 2.01e- 42      0.730 0.379 0.01  3.68e- 38 FB.2    dlx3b          
    ## # … with 125 more rows
…
## 3.2 HB16hpf top5 DE genes

``` r
All.markers.16 <- FindAllMarkers(HB16hpf, only.pos = T, verbose = F)
```

``` r
top5.pval.16 <- All.markers.16 %>% group_by(cluster) %>% top_n(n=-5, wt = p_val) %>% top_n(n=5, wt = avg_log2FC)
top5.pval.16
```

    ## # A tibble: 115 × 7
    ## # Groups:   cluster [23]
    ##        p_val avg_log2FC pct.1 pct.2 p_val_adj cluster gene  
    ##        <dbl>      <dbl> <dbl> <dbl>     <dbl> <fct>   <chr> 
    ##  1 2.47e-124      1.53  0.656 0.003 4.46e-120 FB      lhx2b 
    ##  2 1.46e-104      1.45  0.562 0.003 2.64e-100 FB      vax2  
    ##  3 2.01e- 58      0.666 0.344 0.003 3.63e- 54 FB      rx1   
    ##  4 1.75e- 56      0.609 0.312 0.002 3.15e- 52 FB      fezf2 
    ##  5 1.35e- 48      0.425 0.25  0.001 2.44e- 44 FB      rx2   
    ##  6 1.08e- 62      0.763 0.491 0.018 1.96e- 58 MB.1    dmbx1b
    ##  7 4.49e- 33      0.987 0.491 0.054 8.11e- 29 MB.1    otx2a 
    ##  8 3.02e- 29      0.838 0.491 0.063 5.46e- 25 MB.1    otx1  
    ##  9 8.50e- 21      0.444 0.298 0.031 1.53e- 16 MB.1    otx2b 
    ## 10 1.42e- 18      0.516 0.246 0.023 2.56e- 14 MB.1    stra6 
    ## # … with 105 more rows
…
