…
``` r
Idents(seurat) <- "intClusters"
cellcounts <- as.data.frame(table(seurat$intClusters, seurat$orig.ident)) %>%
  #dplyr::filter(Var1 %in% c("r3.1","r5.1","r5.2"))
  tidyr::pivot_wider(names_from = Var2, values_from = Freq) %>%
  rename(Cluster = Var1)
cellcounts
```

    ## # A tibble: 36 × 4
    ##    Cluster HB10hpf HB13hpf HB16hpf
    ##    <fct>     <int>   <int>   <int>
    ##  1 MB.1         20      61      38
    ##  2 MB.2         31      32       8
    ##  3 MB.3          6      21      13
    ##  4 MHB.1        39      39      34
    ##  5 MHB.2        18      50      37
    ##  6 MHB.3        22      37      19
    ##  7 MHB.4        10      20      24
    ##  8 MHB.5        15      22      15
    ##  9 MHB.6        16       0       1
    ## 10 Neurog       19       8      17
    ## # … with 26 more rows

``` r
#write.table(cellcounts, file = "../results/DataS6_intCluster_cellcounts.txt", sep = "\t", quote = FALSE, col.names = NA)
```

``` r
cellcounts.10 <- as.data.frame(table(seurat$intClusters[seurat$orig.ident == "HB10hpf"], seurat$Clusters[seurat$orig.ident == "HB10hpf"])) %>%
  #dplyr::filter(Var1 %in% c("r3.1","r5.1","r5.2"))
  tidyr::pivot_wider(names_from = Var2, values_from = Freq) %>%
  rename(Cluster = Var1)
cellcounts.10
```

    ## # A tibble: 36 × 21
    ##    Cluster CHB.1 CHB.2 CHB.3    FB `FB &  eye.2` `FB & eye.1` `FB & eye.5`
    ##    <fct>   <int> <int> <int> <int>         <int>        <int>        <int>
    ##  1 MB.1        0     0     0     2             0            0            0
    ##  2 MB.2        0     0     0     0             0            0            2
    ##  3 MB.3        0     0     0     4             0            0            0
    ##  4 MHB.1       0     0     0     0             0            1           16
    ##  5 MHB.2       0     0     0     0             0            0            0
    ##  6 MHB.3       0     0     0     0             0            0            0
    ##  7 MHB.4       0     0     0     0             0            0            0
    ##  8 MHB.5       0     0     0     1             0            0            0
    ##  9 MHB.6       0     0     0     0             0            0            0
    ## 10 Neurog      1     0     0     2             0            2            1
    ## # … with 26 more rows, and 13 more variables: FB & eye.8 <int>, HB.1 <int>,
    ## #   HB.2 <int>, HB.3 <int>, MB <int>, MHB.1 <int>, MHB.2 <int>, MHB.3 <int>,
    ## #   NC.1 <int>, NC.2 <int>, SC.1 <int>, SC.2 <int>, SC.3 <int>

``` r
cellcounts.13 <- as.data.frame(table(seurat$intClusters[seurat$orig.ident == "HB13hpf"], seurat$Clusters[seurat$orig.ident == "HB13hpf"])) %>%
  #dplyr::filter(Var1 %in% c("r3.1","r5.1","r5.2"))
  tidyr::pivot_wider(names_from = Var2, values_from = Freq) %>%
  rename(Cluster = Var1)
cellcounts.13
```

    ## # A tibble: 36 × 27
    ##    Cluster CHB.1 CHB.2 CHB.3 Ciliated  FB.1  FB.2  FB.4  MB.1  MB.2  MB.3 MHB.1
    ##    <fct>   <int> <int> <int>    <int> <int> <int> <int> <int> <int> <int> <int>
    ##  1 MB.1        0     0     0        0     0     0     1     1    28    30     0
    ##  2 MB.2        0     0     0        0     0     0     0    30     2     0     0
    ##  3 MB.3        0     0     0        0     0     0    21     0     0     0     0
    ##  4 MHB.1       0     0     0        0     0     0     0     1     0     0     0
    ##  5 MHB.2       0     0     0        0     0     0     0     0     0     0    43
    ##  6 MHB.3       0     0     0        0     0     0     1     0     1     0     0
    ##  7 MHB.4       0     0     0        0     0     0     0     0     0     0     0
    ##  8 MHB.5       0     0     0        0     0     0     0     0     1     0     0
    ##  9 MHB.6       0     0     0        0     0     0     0     0     0     0     0
    ## 10 Neurog      0     0     1        0     1     0     0     2     1     0     1
    ## # … with 26 more rows, and 15 more variables: MHB.2 <int>, MHB.3 <int>,
    ## #   MHB.4 <int>, MHB.5 <int>, Neuron <int>, r1 <int>, r1 & r2 <int>, r2 <int>,
    ## #   r3 <int>, r4 <int>, r5 <int>, r6 <int>, SC.1 <int>, SC.2 <int>, SC.3 <int>

``` r
cellcounts.16 <- as.data.frame(table(seurat$intClusters[seurat$orig.ident == "HB16hpf"], seurat$Clusters[seurat$orig.ident == "HB16hpf"])) %>%
  #dplyr::filter(Var1 %in% c("r3.1","r5.1","r5.2"))
  tidyr::pivot_wider(names_from = Var2, values_from = Freq) %>%
  rename(Cluster = Var1)
cellcounts.16
```

    ## # A tibble: 36 × 24
    ##    Cluster CHB.1 CHB.2 CHB.3 CHB.4 Ciliated `DorsNT & NC`    FB  MB.1  MB.2
    ##    <fct>   <int> <int> <int> <int>    <int>         <int> <int> <int> <int>
    ##  1 MB.1        0     0     0     0        0             0     0    35     3
    ##  2 MB.2        0     0     0     0        0             0     1     4     3
    ##  3 MB.3        0     0     0     0        1             0     0    12     0
    ##  4 MHB.1       0     0     0     0        0             0     0     0    21
    ##  5 MHB.2       0     0     0     0        0             0     0     0     0
    ##  6 MHB.3       0     0     0     0        0             0     0     1     0
    ##  7 MHB.4       0     0     0     0        0             0     0     0     0
    ##  8 MHB.5       0     0     0     0        0             0     0     4     5
    ##  9 MHB.6       0     0     0     0        0             0     0     0     0
    ## 10 Neurog      0     0     0    10        0             1     1     0     1
    ## # … with 26 more rows, and 14 more variables: MHB.1 <int>, MHB.2 <int>,
    ## #   MHB.3 <int>, Neuron <int>, r1 <int>, r2 <int>, r3 <int>, r4 <int>,
    ## #   r5.1 <int>, r5.2 <int>, r6 <int>, SC.1 <int>, SC.2 <int>, SC.3 <int>
…
