…
# 4. Find DE genes

``` r
All.markers <- FindAllMarkers(seurat, only.pos = T, verbose = F)
write.table(All.markers, file = "../results/DataS2_Fig3_HB10hpf_markers.txt", sep = "\t", quote = F, col.names = NA)
```

``` r
top5.pval <- All.markers %>% group_by(cluster) %>% top_n(n=-5, wt = p_val) %>% top_n(n=5, wt = avg_log2FC)
top5.pval
```

    ## # A tibble: 115 × 7
    ## # Groups:   cluster [23]
    ##       p_val avg_log2FC pct.1 pct.2 p_val_adj cluster    gene           
    ##       <dbl>      <dbl> <dbl> <dbl>     <dbl> <fct>      <chr>          
    ##  1 6.37e-19      0.989 0.75  0.065  9.66e-15 FB & eye.7 vasna          
    ##  2 4.88e-13      0.308 0.25  0.009  7.40e- 9 FB & eye.7 ufc1           
    ##  3 1.77e-12      0.379 0.333 0.019  2.68e- 8 FB & eye.7 arxb           
    ##  4 2.16e-12      0.783 0.75  0.097  3.28e- 8 FB & eye.7 fezf2          
    ##  5 6.13e-11      1.54  1     0.233  9.29e- 7 FB & eye.7 six7           
    ##  6 6.61e-17      1.44  0.889 0.16   1.00e-12 FB & eye.6 lhx2b          
    ##  7 2.28e-12      1.31  0.944 0.228  3.45e- 8 FB & eye.6 six7           
    ##  8 2.04e-11      1.15  0.833 0.192  3.10e- 7 FB & eye.6 met            
    ##  9 1.60e-10      0.840 0.611 0.108  2.42e- 6 FB & eye.6 si:dkey-22o22.2
    ## 10 4.83e-10      1.14  0.722 0.167  7.32e- 6 FB & eye.6 crb2a          
    ## # … with 105 more rows
…
