…
# 4. Find DE genes

``` r
All.markers <- FindAllMarkers(seurat, only.pos = T, verbose = F)
write.table(All.markers, file = "../results/FigureS5_HB13hpf_DEAB_markers.txt", sep = "\t", quote = F, col.names = NA)
```

``` r
top5.pval <- All.markers %>% group_by(cluster) %>% top_n(n=-5, wt = p_val) %>% top_n(n=5, wt = avg_log2FC)
top5.pval
```

    ## # A tibble: 160 × 7
    ## # Groups:   cluster [32]
    ##        p_val avg_log2FC pct.1 pct.2 p_val_adj cluster  gene  
    ##        <dbl>      <dbl> <dbl> <dbl>     <dbl> <fct>    <chr> 
    ##  1 0              1.77  0.8   0.009 0         NC.1     sox10 
    ##  2 5.86e-257      1.46  0.766 0.026 1.20e-252 NC.1     sox9b 
    ##  3 9.98e-234      0.968 0.524 0.005 2.05e-229 NC.1     ednrab
    ##  4 1.27e-192      1.09  0.538 0.014 2.61e-188 NC.1     foxd3 
    ##  5 5.88e-179      1.04  0.579 0.022 1.20e-174 NC.1     ets1  
    ##  6 2.33e-155      1.20  0.594 0.032 4.79e-151 r1/r2/r4 vgll3 
    ##  7 6.51e-110      0.666 0.448 0.026 1.33e-105 r1/r2/r4 hoxa2b
    ##  8 6.14e-101      1.88  0.923 0.192 1.26e- 96 r1/r2/r4 pax6a 
    ##  9 8.86e- 88      0.900 0.524 0.056 1.82e- 83 r1/r2/r4 skap2 
    ## 10 1.57e- 76      1.49  0.958 0.321 3.22e- 72 r1/r2/r4 tox3  
    ## # … with 150 more rows
…
