…
# 4. Find DE genes

``` r
All.markers <- FindAllMarkers(seurat, only.pos = T, verbose = F)
write.table(All.markers, file = "../results/DataS2_Fig1_HB13hpf_markers.txt", sep = "\t", quote = F, col.names = NA)
```

``` r
top5.pval <- All.markers %>% group_by(cluster) %>% top_n(n=-5, wt = p_val) %>% top_n(n=5, wt = avg_log2FC)
top5.pval
```

    ## # A tibble: 135 × 7
    ## # Groups:   cluster [27]
    ##        p_val avg_log2FC pct.1 pct.2 p_val_adj cluster gene           
    ##        <dbl>      <dbl> <dbl> <dbl>     <dbl> <fct>   <chr>          
    ##  1 2.48e- 66      0.800 0.459 0.008 4.54e- 62 FB.1    rx1            
    ##  2 3.31e- 58      1.38  0.649 0.033 6.06e- 54 FB.1    aldh1a3        
    ##  3 4.05e- 45      1.10  0.459 0.02  7.42e- 41 FB.1    rorb           
    ##  4 5.97e- 44      0.976 0.568 0.035 1.09e- 39 FB.1    six3b          
    ##  5 5.36e- 40      0.344 0.216 0.001 9.81e- 36 FB.1    hmx4           
    ##  6 6.25e-112      2.42  1     0.028 1.14e-107 FB.2    si:ch73-215f7.1
    ##  7 6.57e- 89      1.21  0.69  0.013 1.20e- 84 FB.2    foxg1a         
    ##  8 6.22e- 65      1.66  0.724 0.029 1.14e- 60 FB.2    emx3           
    ##  9 2.99e- 47      0.554 0.379 0.008 5.48e- 43 FB.2    dmrta2         
    ## 10 2.01e- 42      0.730 0.379 0.01  3.68e- 38 FB.2    dlx3b          
    ## # … with 125 more rows
…
