…
# 4. Find DE genes

``` r
All.markers <- FindAllMarkers(seurat, only.pos = T, verbose = F)
write.table(All.markers, file = "../results/FigureS2_HB10hpf_markers.txt", sep = "\t", quote = F, col.names = NA)
```

``` r
top5.pval <- All.markers %>% group_by(cluster) %>% top_n(n=-5, wt = p_val) %>% top_n(n=5, wt = avg_log2FC)
top5.pval
```

    ## # A tibble: 120 × 7
    ## # Groups:   cluster [24]
    ##        p_val avg_log2FC pct.1 pct.2 p_val_adj cluster   gene   
    ##        <dbl>      <dbl> <dbl> <dbl>     <dbl> <fct>     <chr>  
    ##  1 1.80e-184       1.22 0.664 0.015 3.23e-180 Placode.1 cldni  
    ##  2 4.91e-166       1.31 0.614 0.015 8.79e-162 Placode.1 samd10a
    ##  3 4.56e-154       1.67 0.786 0.057 8.16e-150 Placode.1 myh9a  
    ##  4 7.09e-154       1.67 0.736 0.044 1.27e-149 Placode.1 rpe65b 
    ##  5 8.21e-145       1.61 0.786 0.059 1.47e-140 Placode.1 gata2a 
    ##  6 1.56e-149       2.18 0.822 0.057 2.80e-145 Somite.1  msgn1  
    ##  7 1.28e-141       2.38 0.958 0.112 2.28e-137 Somite.1  fn1b   
    ##  8 1.47e-139       1.57 0.695 0.037 2.63e-135 Somite.1  tbx16l 
    ##  9 3.50e-135       2.07 0.907 0.092 6.26e-131 Somite.1  tbx16  
    ## 10 4.81e-133       1.16 0.712 0.04  8.60e-129 Somite.1  pcdh8  
    ## # … with 110 more rows
…
