…
    ## Saving 10 x 5 in image

# 4. Find DE genes

``` r
All.markers <- FindAllMarkers(seurat, only.pos = T, verbose = F)
write.table(All.markers, file = "../results/FigureS3_HB13hpf_markers.txt", sep = "\t", quote = F, col.names = NA)
```

``` r
top5.pval <- All.markers %>% group_by(cluster) %>% top_n(n=-5, wt = p_val) %>% top_n(n=5, wt = avg_log2FC)
top5.pval
```

    ## # A tibble: 155 × 7
    ## # Groups:   cluster [31]
    ##       p_val avg_log2FC pct.1 pct.2 p_val_adj cluster    gene   
    ##       <dbl>      <dbl> <dbl> <dbl>     <dbl> <fct>      <chr>  
    ##  1 3.20e-52      1.02  0.538 0.093  6.51e-48 r1 r2 & r4 cyp26c1
    ##  2 5.49e-51      1.08  0.826 0.249  1.12e-46 r1 r2 & r4 plp1a  
    ##  3 1.69e-41      0.872 0.439 0.075  3.43e-37 r1 r2 & r4 skap2  
    ##  4 1.13e-39      0.930 0.705 0.205  2.31e-35 r1 r2 & r4 lamb2  
    ##  5 9.22e-36      1.11  0.742 0.271  1.87e-31 r1 r2 & r4 nr2f2  
    ##  6 1.28e-81      1.81  0.66  0.078  2.61e-77 FB & MB    stra6  
    ##  7 1.00e-39      0.808 0.396 0.054  2.04e-35 FB & MB    kif5c  
    ##  8 8.03e-35      0.980 0.425 0.074  1.63e-30 FB & MB    afap1l2
    ##  9 6.41e-33      0.765 0.425 0.078  1.30e-28 FB & MB    sall3b 
    ## 10 1.10e-32      0.273 0.189 0.012  2.24e-28 FB & MB    dmbx1b 
    ## # … with 145 more rows
…
